{
    "status": "OK",
    "data": {
        "docs": [
            {
                "_id": "64498e63efacf97735caf16c",
                "num": "1",
                "anho": "2013",
                "fecha": "2013-01-03T03:00:00.000Z",
                "fecha_pub": "2013-04-26T03:00:00.000Z",
                "cant_arts": "3",
                "firma": "Herrera, L. B.",
                "otros_firman": [
                    "Guerra, Macchi"
                ],
                "pub": "BO",
                "num_ed_pub": "11069",
                "pag_pub": "2",
                "anho_tomo": "2013",
                "nro_tomo": "4",
                "anexo": "",
                "ley_promul": "",
                "ley_vetada": "",
                "parte_vetada": "",
                "ratif_x_ley": "",
                "dnu": "",
                "art_126_12": false,
                "reglamenta_ley": "",
                "tema": "Autoriza al Ministerio de Hacienda a concretar la entrega al S.A.F. N° 110 - Dirección General de  Administración de la Secretaría General y Legal de la Gobernación - de la suma 8.500.000 de pesos  a través de un anticipo de fondos - Formulario C-42 Orden de Pago sin Imputación Presupuestaria, con destino a la atención de los múltiples compromisos contraídos por el señor Gobernador de la Provincia.",
                "titulo": "",
                "estado": "",
                "modif_por": "",
                "modif_a": "",
                "modif_por_ley": "",
                "modif_a_ley": "",
                "link_pub": "http://www.boletinoflarioja.com.ar/pdf/2013//2013-04-26.pdf#page=2",
                "ref_norm": "Ley 6425",
                "obs": "",
                "fecha_carga": "2016-12-15T03:00:00.000Z",
                "tipeo_dictado": "M.R.",
                "deroga_dec": "",
                "derogado_por": "",
                "pendiente": "",
                "obs_tomo": "",
                "claves": "",
                "__v": 0
            },
            {
                "_id": "64498e6aefacf97735caf542",
                "num": "10",
                "anho": "2019",
                "fecha": "2019-01-08T03:00:00.000Z",
                "fecha_pub": "2019-02-12T03:00:00.000Z",
                "cant_arts": "4",
                "firma": "Casas, S. G.",
                "otros_firman": [
                    "Mercado Luna, Galleguillo"
                ],
                "pub": "BO",
                "num_ed_pub": "11641",
                "pag_pub": "3",
                "anho_tomo": "2019",
                "nro_tomo": "1",
                "anexo": "",
                "ley_promul": "",
                "ley_vetada": "",
                "parte_vetada": "",
                "ratif_x_ley": "",
                "dnu": "",
                "art_126_12": false,
                "reglamenta_ley": "",
                "tema": "Declara la emergencia y/o desastre agropecuario del 9/10/2018 y hasta el 9/5/2019, a los productores agropecuarios cuyas explotaciones han sido afectadas por el granizo, lluvia y vientos de los Departamentos Capital y Arauco.",
                "titulo": "",
                "estado": "",
                "modif_por": "",
                "modif_a": "",
                "modif_por_ley": "",
                "modif_a_ley": "",
                "link_pub": "http://www.boletinoflarioja.com.ar/pdf/2019//2019-02-12.pdf#page=3",
                "ref_norm": "Ley Nac. 26509",
                "obs": "",
                "fecha_carga": "2023-04-26T20:49:46.088Z",
                "tipeo_dictado": "",
                "deroga_dec": "",
                "derogado_por": "",
                "pendiente": "",
                "obs_tomo": "",
                "claves": "",
                "__v": 0
            },
            {
                "_id": "64498e6befacf97735caf5cc",
                "num": "10",
                "anho": "2020",
                "fecha": "2020-01-03T03:00:00.000Z",
                "fecha_pub": "2020-01-10T03:00:00.000Z",
                "cant_arts": "3",
                "firma": "Quintela, R. C.",
                "otros_firman": [
                    "A. Molina, Quintero"
                ],
                "pub": "BO",
                "num_ed_pub": "11732",
                "pag_pub": "4",
                "anho_tomo": "",
                "nro_tomo": "",
                "anexo": "",
                "ley_promul": "10242",
                "ley_vetada": "",
                "parte_vetada": "",
                "ratif_x_ley": "",
                "dnu": "",
                "art_126_12": false,
                "reglamenta_ley": "",
                "tema": "",
                "titulo": "",
                "estado": "",
                "modif_por": "",
                "modif_a": "",
                "modif_por_ley": "",
                "modif_a_ley": "",
                "link_pub": "http://www.boletinoflarioja.com.ar/pdf/2020//2020-01-10.pdf#page=4",
                "ref_norm": "",
                "obs": "",
                "fecha_carga": "2020-03-14T03:00:00.000Z",
                "tipeo_dictado": "D.S.",
                "deroga_dec": "",
                "derogado_por": "",
                "pendiente": "",
                "obs_tomo": "",
                "claves": "",
                "__v": 0
            },
            {
                "_id": "64498e61efacf97735caeffd",
                "num": "10",
                "anho": "2012",
                "fecha": "2012-01-04T03:00:00.000Z",
                "fecha_pub": "2012-06-22T03:00:00.000Z",
                "cant_arts": "6",
                "firma": "Herrera, L. B.",
                "otros_firman": [
                    "Guerra, Paredes Urquiza"
                ],
                "pub": "BO",
                "num_ed_pub": "10986",
                "pag_pub": "4",
                "anho_tomo": "2012",
                "nro_tomo": "4",
                "anexo": "1",
                "ley_promul": "",
                "ley_vetada": "",
                "parte_vetada": "",
                "ratif_x_ley": "",
                "dnu": "",
                "art_126_12": false,
                "reglamenta_ley": "",
                "tema": "",
                "titulo": "",
                "estado": "",
                "modif_por": "",
                "modif_a": "",
                "modif_por_ley": "",
                "modif_a_ley": "",
                "link_pub": "http://www.boletinoflarioja.com.ar/pdf/2012//2012-06-22.pdf#page=4",
                "ref_norm": "",
                "obs": "",
                "fecha_carga": "2016-12-15T03:00:00.000Z",
                "tipeo_dictado": "M.R.",
                "deroga_dec": "",
                "derogado_por": "",
                "pendiente": "",
                "obs_tomo": "",
                "claves": "",
                "__v": 0
            },
            {
                "_id": "64498e6cefacf97735caf6c2",
                "num": "100",
                "anho": "2022",
                "fecha": "2022-02-04T03:00:00.000Z",
                "fecha_pub": "2022-02-11T03:00:00.000Z",
                "cant_arts": "3",
                "firma": "Quintela, R. C.",
                "otros_firman": [
                    "A. Molina"
                ],
                "pub": "BO",
                "num_ed_pub": "11936",
                "pag_pub": "4",
                "anho_tomo": "",
                "nro_tomo": "",
                "anexo": "",
                "ley_promul": "10455",
                "ley_vetada": "",
                "parte_vetada": "",
                "ratif_x_ley": "",
                "dnu": "",
                "art_126_12": false,
                "reglamenta_ley": "",
                "tema": "",
                "titulo": "",
                "estado": "",
                "modif_por": "",
                "modif_a": "",
                "modif_por_ley": "",
                "modif_a_ley": "",
                "link_pub": "http://www.boletinoflarioja.com.ar/pdf/2022//2022-02-11.pdf#page=4",
                "ref_norm": "",
                "obs": "",
                "fecha_carga": "2023-04-26T20:49:48.754Z",
                "tipeo_dictado": "",
                "deroga_dec": "",
                "derogado_por": "",
                "pendiente": "",
                "obs_tomo": "",
                "claves": "",
                "__v": 0
            },
            {
                "_id": "64498e68efacf97735caf448",
                "num": "100",
                "anho": "2017",
                "fecha": "2017-02-10T03:00:00.000Z",
                "fecha_pub": "2017-03-14T03:00:00.000Z",
                "cant_arts": "3",
                "firma": "Casas, S. G.",
                "otros_firman": [
                    "Mercado Luna"
                ],
                "pub": "BO",
                "num_ed_pub": "11451",
                "pag_pub": "3",
                "anho_tomo": "2017",
                "nro_tomo": "2",
                "anexo": "",
                "ley_promul": "9931",
                "ley_vetada": "",
                "parte_vetada": "",
                "ratif_x_ley": "",
                "dnu": "",
                "art_126_12": false,
                "reglamenta_ley": "",
                "tema": "",
                "titulo": "",
                "estado": "",
                "modif_por": "",
                "modif_a": "",
                "modif_por_ley": "",
                "modif_a_ley": "",
                "link_pub": "http://www.boletinoflarioja.com.ar/pdf/2017//2017-03-14.pdf#page=3",
                "ref_norm": "",
                "obs": "",
                "fecha_carga": "2023-04-26T20:49:44.300Z",
                "tipeo_dictado": "S.D.",
                "deroga_dec": "",
                "derogado_por": "",
                "pendiente": "",
                "obs_tomo": "",
                "claves": "",
                "__v": 0
            },
            {
                "_id": "64498e69efacf97735caf4e3",
                "num": "100",
                "anho": "2018",
                "fecha": "2018-02-20T03:00:00.000Z",
                "fecha_pub": "2018-04-03T03:00:00.000Z",
                "cant_arts": "3",
                "firma": "Casas, S. G.",
                "otros_firman": [
                    "Mercado Luna"
                ],
                "pub": "BO",
                "num_ed_pub": "11555",
                "pag_pub": "2",
                "anho_tomo": "2018",
                "nro_tomo": "2",
                "anexo": "",
                "ley_promul": "10052",
                "ley_vetada": "",
                "parte_vetada": "",
                "ratif_x_ley": "",
                "dnu": "",
                "art_126_12": false,
                "reglamenta_ley": "",
                "tema": "",
                "titulo": "",
                "estado": "",
                "modif_por": "",
                "modif_a": "",
                "modif_por_ley": "",
                "modif_a_ley": "",
                "link_pub": "http://www.boletinoflarioja.com.ar/pdf/2018//2018-04-03.pdf#page=2",
                "ref_norm": "",
                "obs": "",
                "fecha_carga": "2023-04-26T20:49:45.440Z",
                "tipeo_dictado": "S.D.",
                "deroga_dec": "",
                "derogado_por": "",
                "pendiente": "",
                "obs_tomo": "",
                "claves": "",
                "__v": 0
            },
            {
                "_id": "64498e5eefacf97735caee98",
                "num": "1000",
                "anho": "2011",
                "fecha": "2011-08-08T03:00:00.000Z",
                "fecha_pub": "2011-10-07T03:00:00.000Z",
                "cant_arts": "5",
                "firma": "Herrera, L. B.",
                "otros_firman": [
                    "Tineo, De Gaetano"
                ],
                "pub": "BO",
                "num_ed_pub": "10917",
                "pag_pub": "5",
                "anho_tomo": "2011",
                "nro_tomo": "6",
                "anexo": "",
                "ley_promul": "",
                "ley_vetada": "",
                "parte_vetada": "",
                "ratif_x_ley": "",
                "dnu": "",
                "art_126_12": false,
                "reglamenta_ley": "",
                "tema": "",
                "titulo": "",
                "estado": "",
                "modif_por": "",
                "modif_a": "",
                "modif_por_ley": "",
                "modif_a_ley": "",
                "link_pub": "http://www.boletinoflarioja.com.ar/pdf/2011//2011-10-07.pdf#page=5",
                "ref_norm": "",
                "obs": "",
                "fecha_carga": "2016-12-15T03:00:00.000Z",
                "tipeo_dictado": "M.R.",
                "deroga_dec": "",
                "derogado_por": "",
                "pendiente": "",
                "obs_tomo": "",
                "claves": "",
                "__v": 0
            },
            {
                "_id": "64498e66efacf97735caf32d",
                "num": "1001",
                "anho": "2015",
                "fecha": "2015-07-17T03:00:00.000Z",
                "fecha_pub": "2015-06-03T03:00:00.000Z",
                "cant_arts": "11",
                "firma": "Herrera, L. B.",
                "otros_firman": [
                    "Rejal"
                ],
                "pub": "BO",
                "num_ed_pub": "11283",
                "pag_pub": "2",
                "anho_tomo": "2015",
                "nro_tomo": "4",
                "anexo": "",
                "ley_promul": "",
                "ley_vetada": "",
                "parte_vetada": "",
                "ratif_x_ley": "",
                "dnu": "",
                "art_126_12": false,
                "reglamenta_ley": "",
                "tema": "Preadjudica a la empresa Chilcal S.A., parcelas en el parque industrial",
                "titulo": "",
                "estado": "",
                "modif_por": "",
                "modif_a": "",
                "modif_por_ley": "",
                "modif_a_ley": "",
                "link_pub": "http://www.boletinoflarioja.com.ar/pdf/2015//2015-06-03.pdf#page=2",
                "ref_norm": "",
                "obs": "",
                "fecha_carga": "1922-11-09T04:00:00.000Z",
                "tipeo_dictado": "M.R.",
                "deroga_dec": "",
                "derogado_por": "",
                "pendiente": "",
                "obs_tomo": "",
                "claves": "",
                "__v": 0
            },
            {
                "_id": "64498e60efacf97735caef7e",
                "num": "1001",
                "anho": "2011",
                "fecha": "2011-08-08T03:00:00.000Z",
                "fecha_pub": "2012-03-16T03:00:00.000Z",
                "cant_arts": "6",
                "firma": "Herrera, L. B.",
                "otros_firman": [
                    "Guerra, Macchi"
                ],
                "pub": "BO",
                "num_ed_pub": "10961",
                "pag_pub": "4",
                "anho_tomo": "2012",
                "nro_tomo": "2",
                "anexo": "",
                "ley_promul": "",
                "ley_vetada": "",
                "parte_vetada": "",
                "ratif_x_ley": "",
                "dnu": "",
                "art_126_12": false,
                "reglamenta_ley": "",
                "tema": "",
                "titulo": "",
                "estado": "",
                "modif_por": "",
                "modif_a": "",
                "modif_por_ley": "",
                "modif_a_ley": "",
                "link_pub": "http://www.boletinoflarioja.com.ar/pdf/2012//2012-03-16.pdf#page=4",
                "ref_norm": "",
                "obs": "",
                "fecha_carga": "2016-12-15T03:00:00.000Z",
                "tipeo_dictado": "M.R.",
                "deroga_dec": "",
                "derogado_por": "",
                "pendiente": "",
                "obs_tomo": "",
                "claves": "",
                "__v": 0
            }
        ],
        "totalDocs": 2625,
        "limit": 10,
        "totalPages": 263,
        "page": 1,
        "pagingCounter": 1,
        "hasPrevPage": false,
        "hasNextPage": true,
        "prevPage": null,
        "nextPage": 2
    }
}